@startuml

title __MEDIA's Class Diagram__\n

  namespace fr.cnam.foad.nfa035.fileutils.streaming.media {
    abstract class fr.cnam.foad.nfa035.fileutils.streaming.media.AbstractImageFrameMedia {
        + getChannel()
        {abstract} + getEncodedImageInput()
        {abstract} + getEncodedImageOutput()
        + setChannel()
        # AbstractImageFrameMedia()
        ~ AbstractImageFrameMedia()
    }
  }
  

  namespace fr.cnam.foad.nfa035.fileutils.streaming.media {
    class fr.cnam.foad.nfa035.fileutils.streaming.media.ImageByteArrayFrame {
        + ImageByteArrayFrame()
        + getEncodedImageInput()
        + getEncodedImageOutput()
    }
  }
  

  namespace fr.cnam.foad.nfa035.fileutils.streaming.media {
    class fr.cnam.foad.nfa035.fileutils.streaming.media.ImageFileFrame {
        + ImageFileFrame()
        + getEncodedImageInput()
        + getEncodedImageOutput()
    }
  }
  

  fr.cnam.foad.nfa035.fileutils.streaming.media.AbstractImageFrameMedia o-- T : channel
  fr.cnam.foad.nfa035.fileutils.streaming.media.ImageByteArrayFrame -up-|> fr.cnam.foad.nfa035.fileutils.streaming.media.AbstractImageFrameMedia
  fr.cnam.foad.nfa035.fileutils.streaming.media.ImageFileFrame -up-|> fr.cnam.foad.nfa035.fileutils.streaming.media.AbstractImageFrameMedia


right footer


PlantUML diagram generated by SketchIt! (https://bitbucket.org/pmesmeur/sketch.it)
For more information about this tool, please contact philippe.mesmeur@gmail.com
endfooter

@enduml
